LSE DS202 2022/23 - ✔️ Formative Problem Set 01 | Solutions
…
Q15. Interaction Effects

Use the * and : symbols to fit linear regression models with interaction effects. Could you find any model with interactions that fit better than the models you built in Questions Q5 & Q8 & Q14? Feel free to use as many interactions and variables as you prefer. Justify your answer. Explain how you reached that conclusion, show us the summary of that model and write the model in equation form. (Worth 15/100 mock marks)

💡 Here, you were not expected to test ALL combinations. You could solve this by trial and error, combining multiple combinations of variables until you reached a model with better RSE, R-squared or other metric.

For didactic purposes, I will re-use the solution from Q14 and test all possible linear models with only two variables, this time considering * and : operator instead of the + operator.

I will look for the model that optimizes for RSE.

# Using the tidyverse function crossing
new_combn_predictors <- crossing(all_combn_predictors, tibble(interaction_type=c("*", ":")))
new_combn_predictors

# A tibble: 90 × 3
   V1          V2         interaction_type
   <chr>       <chr>      <chr>           
 1 Advertising Age        :               
 2 Advertising Age        *               
 3 Advertising Education  :               
 4 Advertising Education  *               
 5 Advertising Population :               
 6 Advertising Population *               
 7 Advertising Price      :               
 8 Advertising Price      *               
 9 Advertising ShelveLoc  :               
10 Advertising ShelveLoc  *               
# … with 80 more rows
…
